﻿<?xml version="1.0" encoding="UTF-8"?>
<V8Exch:_1CV8DtUD xmlns:V8Exch="http://www.1c.ru/V8/1CV8DtUD/" xmlns:v8="http://v8.1c.ru/data" xmlns:xsi="http://www.w3.org/2001/XMLSchema-instance">
	<V8Exch:Data>
		<CatalogObject.Контрагенты>
			<Ref>7ed3a068-9392-11e6-8145-74d4355820f9</Ref>
			<IsFolder>false</IsFolder>
			<DeletionMark>false</DeletionMark>
			<Parent>00000000-0000-0000-0000-000000000000</Parent>
			<Code>000000007</Code>
			<Description>Поставщик1</Description>
		</CatalogObject.Контрагенты>
	</V8Exch:Data>
</V8Exch:_1CV8DtUD>